Ch7P2 Visualization Types - Part II
…
library(tidyverse)
titanic=read_csv("data/titanic.csv")

## Rows: 2201 Columns: 4
## ── Column specification ────────────────────────────────────────────────────────
## Delimiter: ","
## chr (4): Class, Sex, Age, Survived
## 
## ℹ Use `spec()` to retrieve the full column specification for this data.
## ℹ Specify the column types or set `show_col_types = FALSE` to quiet this message.

titanic

## # A tibble: 2,201 × 4
##    Class Sex   Age   Survived
##    <chr> <chr> <chr> <chr>   
##  1 3rd   Male  Child No      
##  2 3rd   Male  Child No      
##  3 3rd   Male  Child No      
##  4 3rd   Male  Child No      
##  5 3rd   Male  Child No      
##  6 3rd   Male  Child No      
##  7 3rd   Male  Child No      
##  8 3rd   Male  Child No      
##  9 3rd   Male  Child No      
## 10 3rd   Male  Child No      
## # ℹ 2,191 more rows
…
