Ch5 Visualization Case Study
…
## `summarise()` has grouped output by 'NAME'. You can override using the `.groups`
## argument.

t2

## # A tibble: 1,830 x 3
##    NAME  MONTHDAY  TEMP
##    <chr> <chr>    <dbl>
##  1 CVG   01-01     34.2
##  2 CVG   01-02     36.1
##  3 CVG   01-03     35.4
##  4 CVG   01-04     33.4
##  5 CVG   01-05     30  
##  6 CVG   01-06     27.8
##  7 CVG   01-07     25.6
##  8 CVG   01-08     29.8
##  9 CVG   01-09     32.9
## 10 CVG   01-10     32.6
## # ... with 1,820 more rows
…
