Ch4P2 Visualization Basics Part II
…
There are many variations of the barplot, for example,
population pyramid. We use Saudi Arabias population
data to generate the population pyramid as follows. As we can see, there
are much more working age men in Saudi Arabia than women. This is
because there are many immigrants coming to Saudi Arabia for work.

saudi = read_csv("data/saudi_arabia.csv")
saudi

## # A tibble: 102 x 12
##    FIPS  GENC  `Country/Area Name`  Year GROUP Population `% of Population`
##    <chr> <chr> <chr>               <dbl> <chr>      <dbl>             <dbl>
##  1 SA    SA    Saudi Arabia         2023 TOTAL   35939806            100   
##  2 SA    SA    Saudi Arabia         2023 0         494327              1.38
##  3 SA    SA    Saudi Arabia         2023 1         495889              1.38
##  4 SA    SA    Saudi Arabia         2023 2         502139              1.40
##  5 SA    SA    Saudi Arabia         2023 3         511583              1.42
##  6 SA    SA    Saudi Arabia         2023 4         522930              1.46
##  7 SA    SA    Saudi Arabia         2023 5         536550              1.49
##  8 SA    SA    Saudi Arabia         2023 6         551843              1.54
##  9 SA    SA    Saudi Arabia         2023 7         568419              1.58
## 10 SA    SA    Saudi Arabia         2023 8         584245              1.63
## # ... with 92 more rows, and 5 more variables: `Male Population` <dbl>,
## #   `% of Males` <dbl>, `Female Population` <dbl>, `% of Females` <dbl>,
## #   `Sex Ratio` <dbl>
…
